22

3 1
1
h 1 0 e
10 9

1 1
64
h 0 0 n
h 0 0 n
h 0 0 n
h 0 0 n
h 0 0 n
h 0 0 n
h 0 0 n
h 0 0 n
h 0 0 n
h 0 0 n
h 0 0 n
h 0 0 n
h 0 0 n
h 0 0 n
h 0 0 n
h 0 0 n
h 0 0 n
h 0 0 n
h 0 0 n
h 0 0 n
h 0 0 n
h 0 0 n
h 0 0 n
h 0 0 n
h 0 0 n
h 0 0 n
h 0 0 n
h 0 0 n
h 0 0 n
h 0 0 n
h 0 0 n
h 0 0 n
h 0 0 n
h 0 0 n
h 0 0 n
h 0 0 n
h 0 0 n
h 0 0 n
h 0 0 n
h 0 0 n
h 0 0 n
h 0 0 n
h 0 0 n
h 0 0 n
h 0 0 n
h 0 0 n
h 0 0 n
h 0 0 n
h 0 0 n
h 0 0 n
h 0 0 n
h 0 0 n
h 0 0 n
h 0 0 n
h 0 0 n
h 0 0 n
h 0 0 n
h 0 0 n
h 0 0 n
h 0 0 n
h 0 0 n
h 0 0 n
h 0 0 n
h 0 0 n
9 9

4 1
4
t 0 0 w
h 3 0 w
r 0 0 e
r 2 0 s
3 8

2 3
4
r 0 2 e
h 0 2 w
t 1 2 n
t 0 0 e
4 2

1 3
1
h 0 1 n
1 6

3 3
4
r 0 1 s
r 2 0 s
t 1 1 e
h 1 1 n
9 7

4 1
4
f 3 0 w
t 2 0 e
r 0 0 s
h 1 0 e
7 9

5 4
4
r 0 3 w
t 1 0 e
r 2 2 s
h 1 0 e
6 1

3 3
3
f 0 1 n
t 1 0 n
f 1 0 n
3 2

5 5
3
t 2 3 e
t 0 4 w
r 2 0 w
4 1

3 4
4
r 1 0 w
h 0 2 w
t 0 1 e
t 0 3 e
1 4

1 2
2
h 0 1 n
t 0 1 w
6 1

4 1
2
f 2 0 w
r 2 0 s
3 3

4 2
2
f 3 0 w
f 0 0 n
5 7

5 2
1
r 2 1 n
9 10

3 4
1
r 1 2 w
7 9

1 4
2
r 0 0 w
t 0 1 n
2 10

3 5
3
r 1 0 s
t 2 2 s
f 0 4 s
9 7

4 2
1
r 1 1 n
5 2

3 5
2
h 2 2 s
f 0 2 n
7 2

1 4
4
t 0 2 n
r 0 2 s
h 0 3 s
t 0 0 n
10 4

5 5
1
h 4 3 e
10 1
