*** Darwin 3x1 ***
Turn = 0.
  0
0 .
1 h
2 .

Turn = 9.
  0
0 .
1 h
2 .

*** Darwin 1x1 ***
Turn = 0.
  0
0 h

Turn = 9.
  0
0 h

*** Darwin 4x1 ***
Turn = 0.
  0
0 r
1 .
2 r
3 h

*** Darwin 2x3 ***
Turn = 0.
  012
0 t.h
1 ..t

Turn = 2.
  012
0 th.
1 ..t

Turn = 4.
  012
0 th.
1 ..t

*** Darwin 1x3 ***
Turn = 0.
  012
0 .h.

*** Darwin 3x3 ***
Turn = 0.
  012
0 .r.
1 .h.
2 r..

Turn = 7.
  012
0 r.r
1 r..
2 ...

*** Darwin 4x1 ***
Turn = 0.
  0
0 r
1 h
2 t
3 f

*** Darwin 5x4 ***
Turn = 0.
  0123
0 ...r
1 h...
2 ..r.
3 ....
4 ....

Turn = 1.
  0123
0 ..r.
1 .h..
2 ....
3 ..r.
4 ....

Turn = 2.
  0123
0 .r..
1 ..h.
2 ....
3 ....
4 ..r.

Turn = 3.
  0123
0 r...
1 ...h
2 ....
3 ....
4 ..r.

Turn = 4.
  0123
0 r...
1 ...h
2 ....
3 ....
4 .r..

Turn = 5.
  0123
0 ....
1 r..h
2 ....
3 ....
4 r...

Turn = 6.
  0123
0 ....
1 ...h
2 r...
3 ....
4 r...

*** Darwin 3x3 ***
Turn = 0.
  012
0 .f.
1 f..
2 ...

Turn = 2.
  012
0 .f.
1 f..
2 ...

*** Darwin 5x5 ***
Turn = 0.
  01234
0 ....t
1 .....
2 r..t.
3 .....
4 .....

Turn = 1.
  01234
0 ....t
1 .....
2 r..t.
3 .....
4 .....

Turn = 2.
  01234
0 ....t
1 r....
2 ...t.
3 .....
4 .....

Turn = 3.
  01234
0 r...t
1 .....
2 ...t.
3 .....
4 .....

Turn = 4.
  01234
0 r...t
1 .....
2 ...t.
3 .....
4 .....

*** Darwin 3x4 ***
Turn = 0.
  0123
0 .tht
1 r...
2 ....

*** Darwin 1x2 ***
Turn = 0.
  01
0 .t

Turn = 1.
  01
0 .t

Turn = 2.
  01
0 .t

Turn = 3.
  01
0 .t

Turn = 4.
  01
0 .t

Turn = 5.
  01
0 .t

Turn = 6.
  01
0 .t

*** Darwin 4x1 ***
Turn = 0.
  0
0 .
1 .
2 r
3 .

Turn = 3.
  0
0 .
1 .
2 .
3 r

*** Darwin 4x2 ***
Turn = 0.
  01
0 f.
1 ..
2 ..
3 f.

*** Darwin 5x2 ***
Turn = 0.
  01
0 ..
1 ..
2 .r
3 ..
4 ..

*** Darwin 3x4 ***
Turn = 0.
  0123
0 ....
1 ..r.
2 ....

*** Darwin 1x4 ***
Turn = 0.
  0123
0 rt..

*** Darwin 3x5 ***
Turn = 0.
  01234
0 ....f
1 r....
2 ..t..

Turn = 7.
  01234
0 r...f
1 .....
2 ..t..

*** Darwin 4x2 ***
Turn = 0.
  01
0 ..
1 .r
2 ..
3 ..

Turn = 2.
  01
0 .r
1 ..
2 ..
3 ..

Turn = 4.
  01
0 .r
1 ..
2 ..
3 ..

*** Darwin 3x5 ***
Turn = 0.
  01234
0 ..f..
1 .....
2 ..h..

Turn = 2.
  01234
0 ..f..
1 .....
2 ..h..

Turn = 4.
  01234
0 ..f..
1 .....
2 ..h..

Turn = 6.
  01234
0 ..f..
1 .....
2 ..h..

*** Darwin 1x4 ***
Turn = 0.
  0123
0 t.rh

Turn = 4.
  0123
0 rr.h

Turn = 8.
  0123
0 .rrr

*** Darwin 5x5 ***
Turn = 0.
  01234
0 .....
1 .....
2 .....
3 .....
4 ...h.

Turn = 1.
  01234
0 .....
1 .....
2 .....
3 .....
4 ....h

Turn = 2.
  01234
0 .....
1 .....
2 .....
3 .....
4 ....h

Turn = 3.
  01234
0 .....
1 .....
2 .....
3 .....
4 ....h

Turn = 4.
  01234
0 .....
1 .....
2 .....
3 .....
4 ....h

Turn = 5.
  01234
0 .....
1 .....
2 .....
3 .....
4 ....h

Turn = 6.
  01234
0 .....
1 .....
2 .....
3 .....
4 ....h

Turn = 7.
  01234
0 .....
1 .....
2 .....
3 .....
4 ....h

Turn = 8.
  01234
0 .....
1 .....
2 .....
3 .....
4 ....h

Turn = 9.
  01234
0 .....
1 .....
2 .....
3 .....
4 ....h

Turn = 10.
  01234
0 .....
1 .....
2 .....
3 .....
4 ....h
